%YAML 1.1
%TAG !u! tag:unity3d.com,2011:
--- !u!1 &2689044292692235510
GameObject:
  m_ObjectHideFlags: 0
  m_CorrespondingSourceObject: {fileID: 0}
  m_PrefabInstance: {fileID: 0}
  m_PrefabAsset: {fileID: 0}
  serializedVersion: 6
  m_Component:
  - component: {fileID: 7891539746960064190}
  - component: {fileID: 1886281008520957122}
  - component: {fileID: 2140159714492483885}
  - component: {fileID: 2982976591582045077}
  m_Layer: 0
  m_Name: Debugger
  m_TagString: Untagged
  m_Icon: {fileID: 0}
  m_NavMeshLayer: 0
  m_StaticEditorFlags: 0
  m_IsActive: 1
--- !u!4 &7891539746960064190
Transform:
  m_ObjectHideFlags: 0
  m_CorrespondingSourceObject: {fileID: 0}
  m_PrefabInstance: {fileID: 0}
  m_PrefabAsset: {fileID: 0}
  m_GameObject: {fileID: 2689044292692235510}
  m_LocalRotation: {x: 0, y: 0, z: 0, w: 1}
  m_LocalPosition: {x: 27.279589, y: -8.840606, z: -90.23176}
  m_LocalScale: {x: 1, y: 1, z: 1}
  m_Children: []
  m_Father: {fileID: 0}
  m_RootOrder: 0
  m_LocalEulerAnglesHint: {x: 0, y: 0, z: 0}
--- !u!114 &1886281008520957122
MonoBehaviour:
  m_ObjectHideFlags: 0
  m_CorrespondingSourceObject: {fileID: 0}
  m_PrefabInstance: {fileID: 0}
  m_PrefabAsset: {fileID: 0}
  m_GameObject: {fileID: 2689044292692235510}
  m_Enabled: 1
  m_EditorHideFlags: 0
  m_Script: {fileID: 11500000, guid: 77c963d9074b5a640bbd7ade0820b346, type: 3}
  m_Name: 
  m_EditorClassIdentifier: 
--- !u!114 &2140159714492483885
MonoBehaviour:
  m_ObjectHideFlags: 0
  m_CorrespondingSourceObject: {fileID: 0}
  m_PrefabInstance: {fileID: 0}
  m_PrefabAsset: {fileID: 0}
  m_GameObject: {fileID: 2689044292692235510}
  m_Enabled: 1
  m_EditorHideFlags: 0
  m_Script: {fileID: 11500000, guid: d932c80f354e24354a05f19eb4fb3bf7, type: 3}
  m_Name: 
  m_EditorClassIdentifier: 
  _developerDescription: 
  _event: {fileID: 11400000, guid: abd85e3bf108e804a8bf977a37e102b2, type: 2}
  _unityEventResponse:
    m_PersistentCalls:
      m_Calls:
      - m_Target: {fileID: 1886281008520957122}
        m_MethodName: Log
        m_Mode: 0
        m_Arguments:
          m_ObjectArgument: {fileID: 0}
          m_ObjectArgumentAssemblyTypeName: UnityEngine.Object, UnityEngine
          m_IntArgument: 0
          m_FloatArgument: 0
          m_StringArgument: 
          m_BoolArgument: 0
        m_CallState: 2
  _actionResponses: []
--- !u!114 &2982976591582045077
MonoBehaviour:
  m_ObjectHideFlags: 0
  m_CorrespondingSourceObject: {fileID: 0}
  m_PrefabInstance: {fileID: 0}
  m_PrefabAsset: {fileID: 0}
  m_GameObject: {fileID: 2689044292692235510}
  m_Enabled: 1
  m_EditorHideFlags: 0
  m_Script: {fileID: 11500000, guid: 5ee5ee89c2d88204cb48c8b1e7b79a75, type: 3}
  m_Name: 
  m_EditorClassIdentifier: 
